lab5/transcript
# Reading C:/Users/ericr/Desktop/poli/anul2/ac/modelsim/modelsim/tcl/vsim/pref.tcl 
# OpenFile C:/Users/ericr/Desktop/poli/anul2/ac/AC/lab5/counter.v 
pwd
# C:/Users/ericr/Desktop/poli/anul2/ac/AC/lab5
do run_counter.txt
# counter.v
# counter_tb
# Model Technology ModelSim ALTERA vlog 6.5b Compiler 2009.10 Oct  1 2009
# -- Compiling module counter
# -- Compiling module counter_tb
# 
# Top level modules:
# 	counter_tb
# vsim -voptargs=+acc counter_tb 
# Loading work.counter_tb
# Loading work.counter
# time=0 | clk=0, rst_b=0, c_up=1, clr=0, q=11111111
# time=5 | clk=1, rst_b=1, c_up=1, clr=0, q=00000000
# time=10 | clk=0, rst_b=1, c_up=1, clr=0, q=00000000
# time=15 | clk=1, rst_b=1, c_up=1, clr=0, q=00000001
# time=20 | clk=0, rst_b=1, c_up=1, clr=0, q=00000001
# time=25 | clk=1, rst_b=1, c_up=1, clr=0, q=00000010
# time=30 | clk=0, rst_b=1, c_up=1, clr=0, q=00000010
# time=35 | clk=1, rst_b=1, c_up=1, clr=0, q=00000011
# time=40 | clk=0, rst_b=1, c_up=1, clr=1, q=00000011
# time=45 | clk=1, rst_b=1, c_up=1, clr=0, q=00000100
# time=50 | clk=0, rst_b=1, c_up=0, clr=0, q=00000100
# time=55 | clk=1, rst_b=1, c_up=1, clr=0, q=00000101
# time=60 | clk=0, rst_b=1, c_up=1, clr=0, q=00000101
# time=65 | clk=1, rst_b=1, c_up=1, clr=0, q=00000110
# time=70 | clk=0, rst_b=1, c_up=1, clr=0, q=00000110
# time=75 | clk=1, rst_b=1, c_up=1, clr=0, q=00000111
# time=80 | clk=0, rst_b=1, c_up=1, clr=0, q=00000111
# time=85 | clk=1, rst_b=1, c_up=1, clr=0, q=00001000
# time=90 | clk=0, rst_b=1, c_up=1, clr=0, q=00001000
# time=95 | clk=1, rst_b=1, c_up=1, clr=0, q=00001001
# time=100 | clk=0, rst_b=1, c_up=1, clr=0, q=00001001
# time=105 | clk=1, rst_b=1, c_up=1, clr=0, q=00001010
# time=110 | clk=0, rst_b=1, c_up=1, clr=0, q=00001010
# time=115 | clk=1, rst_b=1, c_up=1, clr=0, q=00001011
# time=120 | clk=0, rst_b=1, c_up=1, clr=0, q=00001011
# time=125 | clk=1, rst_b=1, c_up=1, clr=0, q=00001100
# time=130 | clk=0, rst_b=1, c_up=1, clr=0, q=00001100
# time=135 | clk=1, rst_b=1, c_up=1, clr=0, q=00001101
# time=140 | clk=0, rst_b=1, c_up=1, clr=0, q=00001101
# time=145 | clk=1, rst_b=1, c_up=1, clr=0, q=00001110
# time=150 | clk=0, rst_b=1, c_up=1, clr=0, q=00001110
# time=155 | clk=1, rst_b=1, c_up=1, clr=0, q=00001111
# time=160 | clk=0, rst_b=1, c_up=1, clr=0, q=00001111
# time=165 | clk=1, rst_b=1, c_up=1, clr=0, q=00010000
# time=170 | clk=0, rst_b=1, c_up=1, clr=0, q=00010000
# time=175 | clk=1, rst_b=1, c_up=1, clr=0, q=00010001
# time=180 | clk=0, rst_b=1, c_up=1, clr=0, q=00010001
# time=185 | clk=1, rst_b=1, c_up=1, clr=0, q=00010010
# time=190 | clk=0, rst_b=1, c_up=1, clr=0, q=00010010
# time=195 | clk=1, rst_b=1, c_up=1, clr=0, q=00010011
# time=200 | clk=0, rst_b=1, c_up=1, clr=0, q=00010011
# time=205 | clk=1, rst_b=1, c_up=1, clr=0, q=00010100
# time=210 | clk=0, rst_b=1, c_up=1, clr=0, q=00010100
# time=215 | clk=1, rst_b=1, c_up=1, clr=0, q=00010101
# time=220 | clk=0, rst_b=1, c_up=1, clr=0, q=00010101
# time=225 | clk=1, rst_b=1, c_up=1, clr=0, q=00010110
# time=230 | clk=0, rst_b=1, c_up=1, clr=0, q=00010110
# time=235 | clk=1, rst_b=1, c_up=1, clr=0, q=00010111
# time=240 | clk=0, rst_b=1, c_up=1, clr=0, q=00010111
# time=245 | clk=1, rst_b=1, c_up=1, clr=0, q=00011000
# time=250 | clk=0, rst_b=1, c_up=1, clr=0, q=00011000
# time=255 | clk=1, rst_b=1, c_up=1, clr=0, q=00011001
# time=260 | clk=0, rst_b=1, c_up=1, clr=0, q=00011001
# time=265 | clk=1, rst_b=1, c_up=1, clr=0, q=00011010
# time=270 | clk=0, rst_b=1, c_up=1, clr=0, q=00011010
# time=275 | clk=1, rst_b=1, c_up=1, clr=0, q=00011011
# time=280 | clk=0, rst_b=1, c_up=1, clr=0, q=00011011
# time=285 | clk=1, rst_b=1, c_up=1, clr=0, q=00011100
# time=290 | clk=0, rst_b=1, c_up=1, clr=0, q=00011100
# time=295 | clk=1, rst_b=1, c_up=1, clr=0, q=00011101
# time=300 | clk=0, rst_b=1, c_up=1, clr=0, q=00011101
# time=305 | clk=1, rst_b=1, c_up=1, clr=0, q=00011110
# time=310 | clk=0, rst_b=1, c_up=1, clr=0, q=00011110
# time=315 | clk=1, rst_b=1, c_up=1, clr=0, q=00011111
# time=320 | clk=0, rst_b=1, c_up=1, clr=0, q=00011111
# time=325 | clk=1, rst_b=1, c_up=1, clr=0, q=00100000
# time=330 | clk=0, rst_b=1, c_up=1, clr=0, q=00100000
# time=335 | clk=1, rst_b=1, c_up=1, clr=0, q=00100001
# time=340 | clk=0, rst_b=1, c_up=1, clr=0, q=00100001
# time=345 | clk=1, rst_b=1, c_up=1, clr=0, q=00100010
# time=350 | clk=0, rst_b=1, c_up=1, clr=0, q=00100010
# time=355 | clk=1, rst_b=1, c_up=1, clr=0, q=00100011
# time=360 | clk=0, rst_b=1, c_up=1, clr=0, q=00100011
# time=365 | clk=1, rst_b=1, c_up=1, clr=0, q=00100100
# time=370 | clk=0, rst_b=1, c_up=1, clr=0, q=00100100
# time=375 | clk=1, rst_b=1, c_up=1, clr=0, q=00100101
# time=380 | clk=0, rst_b=1, c_up=1, clr=0, q=00100101
# time=385 | clk=1, rst_b=1, c_up=1, clr=0, q=00100110
# time=390 | clk=0, rst_b=1, c_up=1, clr=0, q=00100110
# time=395 | clk=1, rst_b=1, c_up=1, clr=0, q=00100111
# time=400 | clk=0, rst_b=1, c_up=1, clr=0, q=00100111
# time=405 | clk=1, rst_b=1, c_up=1, clr=0, q=00101000
# time=410 | clk=0, rst_b=1, c_up=1, clr=0, q=00101000
# time=415 | clk=1, rst_b=1, c_up=1, clr=0, q=00101001
# time=420 | clk=0, rst_b=1, c_up=1, clr=0, q=00101001
# time=425 | clk=1, rst_b=1, c_up=1, clr=0, q=00101010
# time=430 | clk=0, rst_b=1, c_up=1, clr=0, q=00101010
# time=435 | clk=1, rst_b=1, c_up=1, clr=0, q=00101011
# time=440 | clk=0, rst_b=1, c_up=1, clr=0, q=00101011
# time=445 | clk=1, rst_b=1, c_up=1, clr=0, q=00101100
# time=450 | clk=0, rst_b=1, c_up=1, clr=0, q=00101100
# time=455 | clk=1, rst_b=1, c_up=1, clr=0, q=00101101
# time=460 | clk=0, rst_b=1, c_up=1, clr=0, q=00101101
# time=465 | clk=1, rst_b=1, c_up=1, clr=0, q=00101110
# time=470 | clk=0, rst_b=1, c_up=1, clr=0, q=00101110
# time=475 | clk=1, rst_b=1, c_up=1, clr=0, q=00101111
# time=480 | clk=0, rst_b=1, c_up=1, clr=0, q=00101111
# time=485 | clk=1, rst_b=1, c_up=1, clr=0, q=00110000
# time=490 | clk=0, rst_b=1, c_up=1, clr=0, q=00110000
# time=495 | clk=1, rst_b=1, c_up=1, clr=0, q=00110001
# time=500 | clk=0, rst_b=1, c_up=1, clr=0, q=00110001
do run_counter.txt
# counter.v
# counter_tb
# Model Technology ModelSim ALTERA vlog 6.5b Compiler 2009.10 Oct  1 2009
# -- Compiling module counter
# -- Compiling module counter_tb
# 
# Top level modules:
# 	counter_tb
# vsim -voptargs=+acc counter_tb 
# Loading work.counter_tb
# Loading work.counter
# time=0 | clk=0, rst_b=0, c_up=1, clr=0, q=11111111
# time=5 | clk=1, rst_b=1, c_up=1, clr=0, q=00000000
# time=10 | clk=0, rst_b=1, c_up=1, clr=0, q=00000000
# time=15 | clk=1, rst_b=1, c_up=1, clr=0, q=00000001
# time=20 | clk=0, rst_b=1, c_up=1, clr=0, q=00000001
# time=25 | clk=1, rst_b=1, c_up=1, clr=0, q=00000010
# time=30 | clk=0, rst_b=1, c_up=1, clr=0, q=00000010
# time=35 | clk=1, rst_b=1, c_up=1, clr=0, q=00000011
# time=40 | clk=0, rst_b=1, c_up=1, clr=1, q=00000011
# time=45 | clk=1, rst_b=1, c_up=1, clr=1, q=11111111
# time=50 | clk=0, rst_b=1, c_up=0, clr=0, q=11111111
# time=55 | clk=1, rst_b=1, c_up=0, clr=0, q=00000000
# time=60 | clk=0, rst_b=1, c_up=1, clr=0, q=00000000
# time=65 | clk=1, rst_b=1, c_up=1, clr=0, q=00000001
# time=70 | clk=0, rst_b=1, c_up=1, clr=0, q=00000001
# time=75 | clk=1, rst_b=1, c_up=1, clr=0, q=00000010
# time=80 | clk=0, rst_b=1, c_up=1, clr=0, q=00000010
# time=85 | clk=1, rst_b=1, c_up=1, clr=0, q=00000011
# time=90 | clk=0, rst_b=1, c_up=1, clr=0, q=00000011
# time=95 | clk=1, rst_b=1, c_up=1, clr=0, q=00000100
# time=100 | clk=0, rst_b=1, c_up=1, clr=0, q=00000100
# time=105 | clk=1, rst_b=1, c_up=1, clr=0, q=00000101
# time=110 | clk=0, rst_b=1, c_up=1, clr=0, q=00000101
# time=115 | clk=1, rst_b=1, c_up=1, clr=0, q=00000110
# time=120 | clk=0, rst_b=1, c_up=1, clr=0, q=00000110
# time=125 | clk=1, rst_b=1, c_up=1, clr=0, q=00000111
# time=130 | clk=0, rst_b=1, c_up=1, clr=0, q=00000111
# time=135 | clk=1, rst_b=1, c_up=1, clr=0, q=00001000
# time=140 | clk=0, rst_b=1, c_up=1, clr=0, q=00001000
# time=145 | clk=1, rst_b=1, c_up=1, clr=0, q=00001001
# time=150 | clk=0, rst_b=1, c_up=1, clr=0, q=00001001
# time=155 | clk=1, rst_b=1, c_up=1, clr=0, q=00001010
# time=160 | clk=0, rst_b=1, c_up=1, clr=0, q=00001010
# time=165 | clk=1, rst_b=1, c_up=1, clr=0, q=00001011
# time=170 | clk=0, rst_b=1, c_up=1, clr=0, q=00001011
# time=175 | clk=1, rst_b=1, c_up=1, clr=0, q=00001100
# time=180 | clk=0, rst_b=1, c_up=1, clr=0, q=00001100
# time=185 | clk=1, rst_b=1, c_up=1, clr=0, q=00001101
# time=190 | clk=0, rst_b=1, c_up=1, clr=0, q=00001101
# time=195 | clk=1, rst_b=1, c_up=1, clr=0, q=00001110
# time=200 | clk=0, rst_b=1, c_up=1, clr=0, q=00001110
# time=205 | clk=1, rst_b=1, c_up=1, clr=0, q=00001111
# time=210 | clk=0, rst_b=1, c_up=1, clr=0, q=00001111
# time=215 | clk=1, rst_b=1, c_up=1, clr=0, q=00010000
# time=220 | clk=0, rst_b=1, c_up=1, clr=0, q=00010000
# time=225 | clk=1, rst_b=1, c_up=1, clr=0, q=00010001
# time=230 | clk=0, rst_b=1, c_up=1, clr=0, q=00010001
# time=235 | clk=1, rst_b=1, c_up=1, clr=0, q=00010010
# time=240 | clk=0, rst_b=1, c_up=1, clr=0, q=00010010
# time=245 | clk=1, rst_b=1, c_up=1, clr=0, q=00010011
# time=250 | clk=0, rst_b=1, c_up=1, clr=0, q=00010011
# time=255 | clk=1, rst_b=1, c_up=1, clr=0, q=00010100
# time=260 | clk=0, rst_b=1, c_up=1, clr=0, q=00010100
# time=265 | clk=1, rst_b=1, c_up=1, clr=0, q=00010101
# time=270 | clk=0, rst_b=1, c_up=1, clr=0, q=00010101
# time=275 | clk=1, rst_b=1, c_up=1, clr=0, q=00010110
# time=280 | clk=0, rst_b=1, c_up=1, clr=0, q=00010110
# time=285 | clk=1, rst_b=1, c_up=1, clr=0, q=00010111
# time=290 | clk=0, rst_b=1, c_up=1, clr=0, q=00010111
# time=295 | clk=1, rst_b=1, c_up=1, clr=0, q=00011000
# time=300 | clk=0, rst_b=1, c_up=1, clr=0, q=00011000
# time=305 | clk=1, rst_b=1, c_up=1, clr=0, q=00011001
# time=310 | clk=0, rst_b=1, c_up=1, clr=0, q=00011001
# time=315 | clk=1, rst_b=1, c_up=1, clr=0, q=00011010
# time=320 | clk=0, rst_b=1, c_up=1, clr=0, q=00011010
# time=325 | clk=1, rst_b=1, c_up=1, clr=0, q=00011011
# time=330 | clk=0, rst_b=1, c_up=1, clr=0, q=00011011
# time=335 | clk=1, rst_b=1, c_up=1, clr=0, q=00011100
# time=340 | clk=0, rst_b=1, c_up=1, clr=0, q=00011100
# time=345 | clk=1, rst_b=1, c_up=1, clr=0, q=00011101
# time=350 | clk=0, rst_b=1, c_up=1, clr=0, q=00011101
# time=355 | clk=1, rst_b=1, c_up=1, clr=0, q=00011110
# time=360 | clk=0, rst_b=1, c_up=1, clr=0, q=00011110
# time=365 | clk=1, rst_b=1, c_up=1, clr=0, q=00011111
# time=370 | clk=0, rst_b=1, c_up=1, clr=0, q=00011111
# time=375 | clk=1, rst_b=1, c_up=1, clr=0, q=00100000
# time=380 | clk=0, rst_b=1, c_up=1, clr=0, q=00100000
# time=385 | clk=1, rst_b=1, c_up=1, clr=0, q=00100001
# time=390 | clk=0, rst_b=1, c_up=1, clr=0, q=00100001
# time=395 | clk=1, rst_b=1, c_up=1, clr=0, q=00100010
# time=400 | clk=0, rst_b=1, c_up=1, clr=0, q=00100010
# time=405 | clk=1, rst_b=1, c_up=1, clr=0, q=00100011
# time=410 | clk=0, rst_b=1, c_up=1, clr=0, q=00100011
# time=415 | clk=1, rst_b=1, c_up=1, clr=0, q=00100100
# time=420 | clk=0, rst_b=1, c_up=1, clr=0, q=00100100
# time=425 | clk=1, rst_b=1, c_up=1, clr=0, q=00100101
# time=430 | clk=0, rst_b=1, c_up=1, clr=0, q=00100101
# time=435 | clk=1, rst_b=1, c_up=1, clr=0, q=00100110
# time=440 | clk=0, rst_b=1, c_up=1, clr=0, q=00100110
# time=445 | clk=1, rst_b=1, c_up=1, clr=0, q=00100111
# time=450 | clk=0, rst_b=1, c_up=1, clr=0, q=00100111
# time=455 | clk=1, rst_b=1, c_up=1, clr=0, q=00101000
# time=460 | clk=0, rst_b=1, c_up=1, clr=0, q=00101000
# time=465 | clk=1, rst_b=1, c_up=1, clr=0, q=00101001
# time=470 | clk=0, rst_b=1, c_up=1, clr=0, q=00101001
# time=475 | clk=1, rst_b=1, c_up=1, clr=0, q=00101010
# time=480 | clk=0, rst_b=1, c_up=1, clr=0, q=00101010
# time=485 | clk=1, rst_b=1, c_up=1, clr=0, q=00101011
# time=490 | clk=0, rst_b=1, c_up=1, clr=0, q=00101011
# time=495 | clk=1, rst_b=1, c_up=1, clr=0, q=00101100
# time=500 | clk=0, rst_b=1, c_up=1, clr=0, q=00101100
do run_counter.txt
# counter.v
# counter_tb
# Model Technology ModelSim ALTERA vlog 6.5b Compiler 2009.10 Oct  1 2009
# -- Compiling module counter
# -- Compiling module counter_tb
# 
# Top level modules:
# 	counter_tb
# vsim -voptargs=+acc counter_tb 
# Loading work.counter_tb
# Loading work.counter
# time=0 | clk=0, rst_b=0, c_up=1, clr=0, q=11111111
# time=5 | clk=1, rst_b=1, c_up=1, clr=0, q=00000000
# time=10 | clk=0, rst_b=1, c_up=1, clr=0, q=00000000
# time=15 | clk=1, rst_b=1, c_up=1, clr=0, q=00000001
# time=20 | clk=0, rst_b=1, c_up=1, clr=0, q=00000001
# time=25 | clk=1, rst_b=1, c_up=1, clr=0, q=00000010
# time=30 | clk=0, rst_b=1, c_up=1, clr=0, q=00000010
# time=35 | clk=1, rst_b=1, c_up=1, clr=0, q=00000011
# time=40 | clk=0, rst_b=1, c_up=1, clr=1, q=00000011
# time=45 | clk=1, rst_b=1, c_up=1, clr=1, q=11111111
# time=50 | clk=0, rst_b=1, c_up=1, clr=0, q=11111111
# time=55 | clk=1, rst_b=1, c_up=1, clr=0, q=00000000
# time=60 | clk=0, rst_b=1, c_up=0, clr=0, q=00000000
# time=65 | clk=1, rst_b=1, c_up=0, clr=0, q=00000000
# time=70 | clk=0, rst_b=1, c_up=1, clr=0, q=00000000
# time=75 | clk=1, rst_b=1, c_up=1, clr=0, q=00000001
# time=80 | clk=0, rst_b=1, c_up=1, clr=0, q=00000001
# time=85 | clk=1, rst_b=1, c_up=1, clr=0, q=00000010
# time=90 | clk=0, rst_b=1, c_up=1, clr=0, q=00000010
# time=95 | clk=1, rst_b=1, c_up=1, clr=0, q=00000011
# time=100 | clk=0, rst_b=1, c_up=1, clr=0, q=00000011
# time=105 | clk=1, rst_b=1, c_up=1, clr=0, q=00000100
# time=110 | clk=0, rst_b=1, c_up=1, clr=0, q=00000100
# time=115 | clk=1, rst_b=1, c_up=1, clr=0, q=00000101
# time=120 | clk=0, rst_b=1, c_up=1, clr=0, q=00000101
# time=125 | clk=1, rst_b=1, c_up=1, clr=0, q=00000110
# time=130 | clk=0, rst_b=1, c_up=1, clr=0, q=00000110
# time=135 | clk=1, rst_b=1, c_up=1, clr=0, q=00000111
# time=140 | clk=0, rst_b=1, c_up=1, clr=0, q=00000111
# time=145 | clk=1, rst_b=1, c_up=1, clr=0, q=00001000
# time=150 | clk=0, rst_b=1, c_up=1, clr=0, q=00001000
# time=155 | clk=1, rst_b=1, c_up=1, clr=0, q=00001001
# time=160 | clk=0, rst_b=1, c_up=1, clr=0, q=00001001
# time=165 | clk=1, rst_b=1, c_up=1, clr=0, q=00001010
# time=170 | clk=0, rst_b=1, c_up=1, clr=0, q=00001010
# time=175 | clk=1, rst_b=1, c_up=1, clr=0, q=00001011
# time=180 | clk=0, rst_b=1, c_up=1, clr=0, q=00001011
# time=185 | clk=1, rst_b=1, c_up=1, clr=0, q=00001100
# time=190 | clk=0, rst_b=1, c_up=1, clr=0, q=00001100
# time=195 | clk=1, rst_b=1, c_up=1, clr=0, q=00001101
# time=200 | clk=0, rst_b=1, c_up=1, clr=0, q=00001101
# time=205 | clk=1, rst_b=1, c_up=1, clr=0, q=00001110
# time=210 | clk=0, rst_b=1, c_up=1, clr=0, q=00001110
# time=215 | clk=1, rst_b=1, c_up=1, clr=0, q=00001111
# time=220 | clk=0, rst_b=1, c_up=1, clr=0, q=00001111
# time=225 | clk=1, rst_b=1, c_up=1, clr=0, q=00010000
# time=230 | clk=0, rst_b=1, c_up=1, clr=0, q=00010000
# time=235 | clk=1, rst_b=1, c_up=1, clr=0, q=00010001
# time=240 | clk=0, rst_b=1, c_up=1, clr=0, q=00010001
# time=245 | clk=1, rst_b=1, c_up=1, clr=0, q=00010010
# time=250 | clk=0, rst_b=1, c_up=1, clr=0, q=00010010
# time=255 | clk=1, rst_b=1, c_up=1, clr=0, q=00010011
# time=260 | clk=0, rst_b=1, c_up=1, clr=0, q=00010011
# time=265 | clk=1, rst_b=1, c_up=1, clr=0, q=00010100
# time=270 | clk=0, rst_b=1, c_up=1, clr=0, q=00010100
# time=275 | clk=1, rst_b=1, c_up=1, clr=0, q=00010101
# time=280 | clk=0, rst_b=1, c_up=1, clr=0, q=00010101
# time=285 | clk=1, rst_b=1, c_up=1, clr=0, q=00010110
# time=290 | clk=0, rst_b=1, c_up=1, clr=0, q=00010110
# time=295 | clk=1, rst_b=1, c_up=1, clr=0, q=00010111
# time=300 | clk=0, rst_b=1, c_up=1, clr=0, q=00010111
# time=305 | clk=1, rst_b=1, c_up=1, clr=0, q=00011000
# time=310 | clk=0, rst_b=1, c_up=1, clr=0, q=00011000
# time=315 | clk=1, rst_b=1, c_up=1, clr=0, q=00011001
# time=320 | clk=0, rst_b=1, c_up=1, clr=0, q=00011001
# time=325 | clk=1, rst_b=1, c_up=1, clr=0, q=00011010
# time=330 | clk=0, rst_b=1, c_up=1, clr=0, q=00011010
# time=335 | clk=1, rst_b=1, c_up=1, clr=0, q=00011011
# time=340 | clk=0, rst_b=1, c_up=1, clr=0, q=00011011
# time=345 | clk=1, rst_b=1, c_up=1, clr=0, q=00011100
# time=350 | clk=0, rst_b=1, c_up=1, clr=0, q=00011100
# time=355 | clk=1, rst_b=1, c_up=1, clr=0, q=00011101
# time=360 | clk=0, rst_b=1, c_up=1, clr=0, q=00011101
# time=365 | clk=1, rst_b=1, c_up=1, clr=0, q=00011110
# time=370 | clk=0, rst_b=1, c_up=1, clr=0, q=00011110
# time=375 | clk=1, rst_b=1, c_up=1, clr=0, q=00011111
# time=380 | clk=0, rst_b=1, c_up=1, clr=0, q=00011111
# time=385 | clk=1, rst_b=1, c_up=1, clr=0, q=00100000
# time=390 | clk=0, rst_b=1, c_up=1, clr=0, q=00100000
# time=395 | clk=1, rst_b=1, c_up=1, clr=0, q=00100001
# time=400 | clk=0, rst_b=1, c_up=1, clr=0, q=00100001
# time=405 | clk=1, rst_b=1, c_up=1, clr=0, q=00100010
# time=410 | clk=0, rst_b=1, c_up=1, clr=0, q=00100010
# time=415 | clk=1, rst_b=1, c_up=1, clr=0, q=00100011
# time=420 | clk=0, rst_b=1, c_up=1, clr=0, q=00100011
# time=425 | clk=1, rst_b=1, c_up=1, clr=0, q=00100100
# time=430 | clk=0, rst_b=1, c_up=1, clr=0, q=00100100
# time=435 | clk=1, rst_b=1, c_up=1, clr=0, q=00100101
# time=440 | clk=0, rst_b=1, c_up=1, clr=0, q=00100101
# time=445 | clk=1, rst_b=1, c_up=1, clr=0, q=00100110
# time=450 | clk=0, rst_b=1, c_up=1, clr=0, q=00100110
# time=455 | clk=1, rst_b=1, c_up=1, clr=0, q=00100111
# time=460 | clk=0, rst_b=1, c_up=1, clr=0, q=00100111
# time=465 | clk=1, rst_b=1, c_up=1, clr=0, q=00101000
# time=470 | clk=0, rst_b=1, c_up=1, clr=0, q=00101000
# time=475 | clk=1, rst_b=1, c_up=1, clr=0, q=00101001
# time=480 | clk=0, rst_b=1, c_up=1, clr=0, q=00101001
# time=485 | clk=1, rst_b=1, c_up=1, clr=0, q=00101010
# time=490 | clk=0, rst_b=1, c_up=1, clr=0, q=00101010
# time=495 | clk=1, rst_b=1, c_up=1, clr=0, q=00101011
# time=500 | clk=0, rst_b=1, c_up=1, clr=0, q=00101011
do run_counter.txt
# counter.v
# counter_tb
# Model Technology ModelSim ALTERA vlog 6.5b Compiler 2009.10 Oct  1 2009
# -- Compiling module counter
# -- Compiling module counter_tb
# 
# Top level modules:
# 	counter_tb
# vsim -voptargs=+acc counter_tb 
# Loading work.counter_tb
# Loading work.counter
